Employee Number,Basic Pay,HELB,RHEAL Loan,RHEAL Shares,Loan,Medical Premium,Salary Advance,Meal Plan,Benevolent
1,299600,0,0,5000,0,0,0,0,0
3,49450,0,0,0,13440,6613,0,3200,1000
4,64975,0,0,10000,0,0,0,700,0
5,87135,0,13689,3000,0,8389,5000,1100,1000
8,30000,0,0,0,6800,0,1000,500,500
9,40000,0,0,0,0,3870,1000,800,1500
10,19200,0,0,0,5750,0,500,0,0
11,42000,0,0,0,11500,0,1000,1000,0
12,35000,0,0,0,15250,0,1000,800,0
13,38000,0,5626,3000,5800,0,1000,1000,0
15,45000,0,0,0,6500,3870,1000,100,0
16,70000,0,0,0,4970,0,1000,500,0
17,40000,0,0,0,0,0,1000,300,2000
19,40000,0,0,0,8742,0,800,800,0
20,40000,0,0,0,0,0,0,1300,1000
21,100000,0,0,0,11000,0,1000,1900,1500
22,25000,0,6126,3000,0,0,2500,600,500
23,80000,0,0,0,4675,0,1000,900,1000
26,25000,0,0,0,3125,0,1000,1200,1000
27,50000,0,0,0,0,0,7700,1600,2000
28,90000,0,0,0,9300,0,1000,1500,1500
30,85000,0,0,0,15867,0,0,1600,0
32,80000,0,0,0,11467,0,1000,700,0
34,40000,0,0,4000,0,0,1000,1500,500
35,80000,0,0,0,0,0,5000,1500,500
